{
  "hasMore": true,
  "nextOffset": 1,
  "results": [
    {
      "deviation": {
        "deviationId": 806332634,
        "typeId": 1,
        "printId": null,
        "url": "https://www.deviantart.com/bio675/art/Ok-some-action-806332634",
        "title": "Ok some action",
        "isJournal": false,
        "isPurchasable": false,
        "publishedTime": "2019-07-19T15:03:15-0700",
        "isTextEditable": false,
        "legacyTextEditUrl": null,
        "isShareable": true,
        "isCommentable": true,
        "isFavourited": false,
        "isDeleted": false,
        "isMature": false,
        "isDownloadable": true,
        "isAntisocial": false,
        "isBlocked": false,
        "isPublished": true,
        "blockReason": null,
        "author": {
          "userId": 15679473,
          "useridUuid": "8ddd64f6-c11d-4adc-9881-56a5d671b7ce",
          "username": "BIO675",
          "usericon": "https://a.deviantart.net/avatars-big/b/i/bio675.png?4",
          "type": "regular",
          "isNewDeviant": false
        },
        "stats": {
          "comments": 5,
          "favourites": 14
        },
        "files": [
          {
            "type": "150",
            "src": "https://images-wixmp-ed30a86b8c4ca887773594c2.wixmp.com/f/8ddd64f6-c11d-4adc-9881-56a5d671b7ce/ddc2i8q-f9a08013-3b2b-4ab0-8cb2-24ff34bd0f67.png/v1/fit/w_150,h_150,strp/ok_some_action_by_bio675_ddc2i8q-150.png?token=eyJ0eXAiOiJKV1QiLCJhbGciOiJIUzI1NiJ9.eyJzdWIiOiJ1cm46YXBwOjdlMGQxODg5ODIyNjQzNzNhNWYwZDQxNWVhMGQyNmUwIiwiaXNzIjoidXJuOmFwcDo3ZTBkMTg4OTgyMjY0MzczYTVmMGQ0MTVlYTBkMjZlMCIsIm9iaiI6W1t7ImhlaWdodCI6Ijw9Mzg0NCIsInBhdGgiOiJcL2ZcLzhkZGQ2NGY2LWMxMWQtNGFkYy05ODgxLTU2YTVkNjcxYjdjZVwvZGRjMmk4cS1mOWEwODAxMy0zYjJiLTRhYjAtOGNiMi0yNGZmMzRiZDBmNjcucG5nIiwid2lkdGgiOiI8PTE5OTkifV1dLCJhdWQiOlsidXJuOnNlcnZpY2U6aW1hZ2Uub3BlcmF0aW9ucyJdfQ.VaRPFXuBMOp6wvt38ykiSvlpH59ON_MbQ0AaX5WAuuM",
            "height": 150,
            "width": 78,
            "transparency": true,
            "isDefault": false,
            "filesize": 133954
          },
          {
            "type": "200H",
            "src": "https://images-wixmp-ed30a86b8c4ca887773594c2.wixmp.com/f/8ddd64f6-c11d-4adc-9881-56a5d671b7ce/ddc2i8q-f9a08013-3b2b-4ab0-8cb2-24ff34bd0f67.png/v1/fill/w_104,h_200,strp/ok_some_action_by_bio675_ddc2i8q-200h.png?token=eyJ0eXAiOiJKV1QiLCJhbGciOiJIUzI1NiJ9.eyJzdWIiOiJ1cm46YXBwOjdlMGQxODg5ODIyNjQzNzNhNWYwZDQxNWVhMGQyNmUwIiwiaXNzIjoidXJuOmFwcDo3ZTBkMTg4OTgyMjY0MzczYTVmMGQ0MTVlYTBkMjZlMCIsIm9iaiI6W1t7ImhlaWdodCI6Ijw9Mzg0NCIsInBhdGgiOiJcL2ZcLzhkZGQ2NGY2LWMxMWQtNGFkYy05ODgxLTU2YTVkNjcxYjdjZVwvZGRjMmk4cS1mOWEwODAxMy0zYjJiLTRhYjAtOGNiMi0yNGZmMzRiZDBmNjcucG5nIiwid2lkdGgiOiI8PTE5OTkifV1dLCJhdWQiOlsidXJuOnNlcnZpY2U6aW1hZ2Uub3BlcmF0aW9ucyJdfQ.VaRPFXuBMOp6wvt38ykiSvlpH59ON_MbQ0AaX5WAuuM",
            "height": 200,
            "width": 104,
            "transparency": true,
            "isDefault": false,
            "filesize": 133954
          },
          {
            "type": "300W",
            "src": "https://images-wixmp-ed30a86b8c4ca887773594c2.wixmp.com/f/8ddd64f6-c11d-4adc-9881-56a5d671b7ce/ddc2i8q-f9a08013-3b2b-4ab0-8cb2-24ff34bd0f67.png/v1/fit/w_300,h_900,strp/ok_some_action_by_bio675_ddc2i8q-300w.png?token=eyJ0eXAiOiJKV1QiLCJhbGciOiJIUzI1NiJ9.eyJzdWIiOiJ1cm46YXBwOjdlMGQxODg5ODIyNjQzNzNhNWYwZDQxNWVhMGQyNmUwIiwiaXNzIjoidXJuOmFwcDo3ZTBkMTg4OTgyMjY0MzczYTVmMGQ0MTVlYTBkMjZlMCIsIm9iaiI6W1t7ImhlaWdodCI6Ijw9Mzg0NCIsInBhdGgiOiJcL2ZcLzhkZGQ2NGY2LWMxMWQtNGFkYy05ODgxLTU2YTVkNjcxYjdjZVwvZGRjMmk4cS1mOWEwODAxMy0zYjJiLTRhYjAtOGNiMi0yNGZmMzRiZDBmNjcucG5nIiwid2lkdGgiOiI8PTE5OTkifV1dLCJhdWQiOlsidXJuOnNlcnZpY2U6aW1hZ2Uub3BlcmF0aW9ucyJdfQ.VaRPFXuBMOp6wvt38ykiSvlpH59ON_MbQ0AaX5WAuuM",
            "height": 577,
            "width": 300,
            "transparency": true,
            "isDefault": false,
            "filesize": 133954
          },
          {
            "type": "250T",
            "src": "https://images-wixmp-ed30a86b8c4ca887773594c2.wixmp.com/f/8ddd64f6-c11d-4adc-9881-56a5d671b7ce/ddc2i8q-f9a08013-3b2b-4ab0-8cb2-24ff34bd0f67.png/v1/fill/w_130,h_250,strp/ok_some_action_by_bio675_ddc2i8q-250t.png?token=eyJ0eXAiOiJKV1QiLCJhbGciOiJIUzI1NiJ9.eyJzdWIiOiJ1cm46YXBwOjdlMGQxODg5ODIyNjQzNzNhNWYwZDQxNWVhMGQyNmUwIiwiaXNzIjoidXJuOmFwcDo3ZTBkMTg4OTgyMjY0MzczYTVmMGQ0MTVlYTBkMjZlMCIsIm9iaiI6W1t7ImhlaWdodCI6Ijw9Mzg0NCIsInBhdGgiOiJcL2ZcLzhkZGQ2NGY2LWMxMWQtNGFkYy05ODgxLTU2YTVkNjcxYjdjZVwvZGRjMmk4cS1mOWEwODAxMy0zYjJiLTRhYjAtOGNiMi0yNGZmMzRiZDBmNjcucG5nIiwid2lkdGgiOiI8PTE5OTkifV1dLCJhdWQiOlsidXJuOnNlcnZpY2U6aW1hZ2Uub3BlcmF0aW9ucyJdfQ.VaRPFXuBMOp6wvt38ykiSvlpH59ON_MbQ0AaX5WAuuM",
            "height": 250,
            "width": 130,
            "transparency": true,
            "isDefault": false,
            "filesize": 133954
          },
          {
            "type": "350T",
            "src": "https://images-wixmp-ed30a86b8c4ca887773594c2.wixmp.com/f/8ddd64f6-c11d-4adc-9881-56a5d671b7ce/ddc2i8q-f9a08013-3b2b-4ab0-8cb2-24ff34bd0f67.png/v1/fill/w_182,h_350,strp/ok_some_action_by_bio675_ddc2i8q-350t.png?token=eyJ0eXAiOiJKV1QiLCJhbGciOiJIUzI1NiJ9.eyJzdWIiOiJ1cm46YXBwOjdlMGQxODg5ODIyNjQzNzNhNWYwZDQxNWVhMGQyNmUwIiwiaXNzIjoidXJuOmFwcDo3ZTBkMTg4OTgyMjY0MzczYTVmMGQ0MTVlYTBkMjZlMCIsIm9iaiI6W1t7ImhlaWdodCI6Ijw9Mzg0NCIsInBhdGgiOiJcL2ZcLzhkZGQ2NGY2LWMxMWQtNGFkYy05ODgxLTU2YTVkNjcxYjdjZVwvZGRjMmk4cS1mOWEwODAxMy0zYjJiLTRhYjAtOGNiMi0yNGZmMzRiZDBmNjcucG5nIiwid2lkdGgiOiI8PTE5OTkifV1dLCJhdWQiOlsidXJuOnNlcnZpY2U6aW1hZ2Uub3BlcmF0aW9ucyJdfQ.VaRPFXuBMOp6wvt38ykiSvlpH59ON_MbQ0AaX5WAuuM",
            "height": 350,
            "width": 182,
            "transparency": true,
            "isDefault": false,
            "filesize": 133954
          },
          {
            "type": "400T",
            "src": "https://images-wixmp-ed30a86b8c4ca887773594c2.wixmp.com/f/8ddd64f6-c11d-4adc-9881-56a5d671b7ce/ddc2i8q-f9a08013-3b2b-4ab0-8cb2-24ff34bd0f67.png/v1/fill/w_208,h_400,strp/ok_some_action_by_bio675_ddc2i8q-400t.png?token=eyJ0eXAiOiJKV1QiLCJhbGciOiJIUzI1NiJ9.eyJzdWIiOiJ1cm46YXBwOjdlMGQxODg5ODIyNjQzNzNhNWYwZDQxNWVhMGQyNmUwIiwiaXNzIjoidXJuOmFwcDo3ZTBkMTg4OTgyMjY0MzczYTVmMGQ0MTVlYTBkMjZlMCIsIm9iaiI6W1t7ImhlaWdodCI6Ijw9Mzg0NCIsInBhdGgiOiJcL2ZcLzhkZGQ2NGY2LWMxMWQtNGFkYy05ODgxLTU2YTVkNjcxYjdjZVwvZGRjMmk4cS1mOWEwODAxMy0zYjJiLTRhYjAtOGNiMi0yNGZmMzRiZDBmNjcucG5nIiwid2lkdGgiOiI8PTE5OTkifV1dLCJhdWQiOlsidXJuOnNlcnZpY2U6aW1hZ2Uub3BlcmF0aW9ucyJdfQ.VaRPFXuBMOp6wvt38ykiSvlpH59ON_MbQ0AaX5WAuuM",
            "height": 400,
            "width": 208,
            "transparency": true,
            "isDefault": false,
            "filesize": 133954
          },
          {
            "type": "preview",
            "src": "https://images-wixmp-ed30a86b8c4ca887773594c2.wixmp.com/f/8ddd64f6-c11d-4adc-9881-56a5d671b7ce/ddc2i8q-f9a08013-3b2b-4ab0-8cb2-24ff34bd0f67.png/v1/fill/w_644,h_1240,strp/ok_some_action_by_bio675_ddc2i8q-pre.png?token=eyJ0eXAiOiJKV1QiLCJhbGciOiJIUzI1NiJ9.eyJzdWIiOiJ1cm46YXBwOjdlMGQxODg5ODIyNjQzNzNhNWYwZDQxNWVhMGQyNmUwIiwiaXNzIjoidXJuOmFwcDo3ZTBkMTg4OTgyMjY0MzczYTVmMGQ0MTVlYTBkMjZlMCIsIm9iaiI6W1t7ImhlaWdodCI6Ijw9Mzg0NCIsInBhdGgiOiJcL2ZcLzhkZGQ2NGY2LWMxMWQtNGFkYy05ODgxLTU2YTVkNjcxYjdjZVwvZGRjMmk4cS1mOWEwODAxMy0zYjJiLTRhYjAtOGNiMi0yNGZmMzRiZDBmNjcucG5nIiwid2lkdGgiOiI8PTE5OTkifV1dLCJhdWQiOlsidXJuOnNlcnZpY2U6aW1hZ2Uub3BlcmF0aW9ucyJdfQ.VaRPFXuBMOp6wvt38ykiSvlpH59ON_MbQ0AaX5WAuuM",
            "height": 1240,
            "width": 644,
            "transparency": true,
            "isDefault": false,
            "filesize": 133954
          },
          {
            "type": "social_preview",
            "src": "https://images-wixmp-ed30a86b8c4ca887773594c2.wixmp.com/f/8ddd64f6-c11d-4adc-9881-56a5d671b7ce/ddc2i8q-f9a08013-3b2b-4ab0-8cb2-24ff34bd0f67.png/v1/fill/w_644,h_1240,strp/ok_some_action_by_bio675_ddc2i8q-pre.png?token=eyJ0eXAiOiJKV1QiLCJhbGciOiJIUzI1NiJ9.eyJzdWIiOiJ1cm46YXBwOjdlMGQxODg5ODIyNjQzNzNhNWYwZDQxNWVhMGQyNmUwIiwiaXNzIjoidXJuOmFwcDo3ZTBkMTg4OTgyMjY0MzczYTVmMGQ0MTVlYTBkMjZlMCIsIm9iaiI6W1t7ImhlaWdodCI6Ijw9Mzg0NCIsInBhdGgiOiJcL2ZcLzhkZGQ2NGY2LWMxMWQtNGFkYy05ODgxLTU2YTVkNjcxYjdjZVwvZGRjMmk4cS1mOWEwODAxMy0zYjJiLTRhYjAtOGNiMi0yNGZmMzRiZDBmNjcucG5nIiwid2lkdGgiOiI8PTE5OTkifV1dLCJhdWQiOlsidXJuOnNlcnZpY2U6aW1hZ2Uub3BlcmF0aW9ucyJdfQ.VaRPFXuBMOp6wvt38ykiSvlpH59ON_MbQ0AaX5WAuuM",
            "height": 1240,
            "width": 644,
            "transparency": true,
            "isDefault": false,
            "filesize": 133954
          },
          {
            "type": "fullview",
            "src": "https://images-wixmp-ed30a86b8c4ca887773594c2.wixmp.com/f/8ddd64f6-c11d-4adc-9881-56a5d671b7ce/ddc2i8q-f9a08013-3b2b-4ab0-8cb2-24ff34bd0f67.png?token=eyJ0eXAiOiJKV1QiLCJhbGciOiJIUzI1NiJ9.eyJzdWIiOiJ1cm46YXBwOjdlMGQxODg5ODIyNjQzNzNhNWYwZDQxNWVhMGQyNmUwIiwiaXNzIjoidXJuOmFwcDo3ZTBkMTg4OTgyMjY0MzczYTVmMGQ0MTVlYTBkMjZlMCIsIm9iaiI6W1t7InBhdGgiOiJcL2ZcLzhkZGQ2NGY2LWMxMWQtNGFkYy05ODgxLTU2YTVkNjcxYjdjZVwvZGRjMmk4cS1mOWEwODAxMy0zYjJiLTRhYjAtOGNiMi0yNGZmMzRiZDBmNjcucG5nIn1dXSwiYXVkIjpbInVybjpzZXJ2aWNlOmZpbGUuZG93bmxvYWQiXX0.qRgsRAy8g9ow9bZNgSPfar46uUs1C3vUG60v7Azchdo",
            "height": 3844,
            "width": 1999,
            "transparency": true,
            "isDefault": false,
            "filesize": 133954
          }
        ]
      }
    }
  ],
  "comments": {
    "hasMore": true,
    "hasLess": false,
    "nextOffset": 7,
    "cursor": "4594506151+",
    "prevCursor": null,
    "total": 27,
    "canPostComment": false,
    "commentableTypeid": 20,
    "commentableItemid": 27252516,
    "thread": [
      {
        "commentId": 4741578444,
        "typeId": 20,
        "itemId": 27252516,
        "parentId": null,
        "posted": "2019-06-08T16:53:26-0700",
        "edited": null,
        "replies": 0,
        "isOwner": false,
        "isViolation": false,
        "isAdminHidden": false,
        "isHidden": false,
        "isLocked": false,
        "isSpam": false,
        "isPrivate": false,
        "isAnnotation": false,
        "isDeleted": false,
        "isAuthor": false,
        "isAdminMode": false,
        "isFeatured": false,
        "isReportable": false,
        "isLiked": false,
        "likes": 0,
        "hidden": null,
        "textContent": {
          "excerpt": "",
          "html": {
            "type": "writer",
            "markup": "you have a very nice drawing style",
            "features": ""
          }
        },
        "signature": null,
        "authorInfo": "Student Traditional Artist",
        "user": {
          "userId": 48365575,
          "useridUuid": "6ef08315-ce1a-48c8-a4a7-814571f8eb2c",
          "username": "Artista-en-Pijama",
          "usericon": "https://a.deviantart.net/avatars-big/a/r/artista-en-pijama.jpg?2",
          "type": "regular",
          "isNewDeviant": true
        },
        "legacyTextEditUrl": null
      }
    ]
  }
}
